     195804
    -848484
    -617706
    7881849
   -3461241
  -37427247
   36018288
  118335006
 -146511352
 -335777057
  189210169
  556850979
  -69910367
 -707024933
 -590399215
 -332536904
 -353949096
 -475300832
 -573077939
 -614642195
 -608218749
 -553730579
 -407273849
 -258599214
 -248611305
 -254873665
  -51167886
  139820137
  -81007459
 -303408620
  143300970
  535977646
 -136272250
 -727483719
   83609287
  810694220
   30172033
 -779618605
 -359794610
  235552515
   86402319
 -172824794
   33544788
  170805511
  -78225077
 -390030777
 -643203194
 -606616043
 -259268111
  137002148
  699295407
  936747428
  341093624
 -234517248
 -148990753
  188666396
  324833069
  402461944
  754072295
  858049943
  248565395
 -449724855
 -638741898
 -576870734
